…
```
## `summarise()` ungrouping output (override with `.groups` argument)
```


```
## Simple feature collection with 8 features and 2 fields
## geometry type:  MULTIPOLYGON
## dimension:      XY
## bbox:           xmin: -180 ymin: -90 xmax: 180 ymax: 83.64513
## geographic CRS: WGS 84
## # A tibble: 8 x 3
##   continent   pop_sum                                                       geom
##   <chr>         <dbl>                                         <MULTIPOLYGON [°]>
## 1 Africa       1.15e9 (((32.83012 -26.74219, 32.58026 -27.47016, 32.46213 -28.3…
## # … with 7 more rows
```
…
